module gitlab.com/okunnig/certchain

go 1.14

require (
	github.com/BurntSushi/toml v0.3.1
	github.com/alecthomas/template v0.0.0-20190718012654-fb15b899a751 // indirect
	github.com/alecthomas/units v0.0.0-20190924025748-f65c72e2690d // indirect
	github.com/pkg/errors v0.9.1
	gopkg.in/alecthomas/kingpin.v2 v2.2.6
)
